Lab3/hello_world/waves.vcd
$date
     Mar 10, 2025       16:36:21
$end

$version
              SystemC 2.0.1 --- Jan 24 2006 20:27:51
$end

$timescale
     100 ps
$end

$scope module SystemC $end
$var wire    1  aaa  ClockGen_1       $end
$var wire    5  aab  hmaster       $end
$var wire    1  aac  ctrl_signals.hwrite       $end
$var wire    3  aad  ctrl_signals.hburst       $end
$var wire    2  aae  ctrl_signals.htrans       $end
$var wire    3  aaf  ctrl_signals.hsize       $end
$var wire   32  aag  haddr       $end
$var wire   32  aah  hwdataout       $end
$var wire   32  aai  delayed_hwdataout       $end
$var wire   32  aaj  hrdata       $end
$var wire    1  aak  hready       $end
$var wire    1  aal  hreq0       $end
$var wire    1  aam  hgrant0       $end
$var wire   32  aan  address0       $end
$var wire   32  aao  hwdata0       $end
$var wire    1  aap  readymast0       $end
$var wire    1  aaq  pinoutmast0.nreset       $end
$var wire   32  aar  pinoutmast0.address       $end
$var wire   32  aas  pinoutmast0.data       $end
$var wire    1  aat  pinoutmast0.rw       $end
$var wire    1  aau  pinoutmast0.fiq       $end
$var wire    1  aav  pinoutmast0.irq       $end
$var wire    1  aaw  pinoutmast0.benable       $end
$var wire   32  aax  pinoutmast0.bw       $end
$var wire   32  aay  pinoutmast0.burst       $end
$var wire    1  aaz  requestmast0       $end
$var wire    1  aba  readymast_interconnect0       $end
$var wire    1  abb  pinoutmast_interconnect0.nreset       $end
$var wire   32  abc  pinoutmast_interconnect0.address       $end
$var wire   32  abd  pinoutmast_interconnect0.data       $end
$var wire    1  abe  pinoutmast_interconnect0.rw       $end
$var wire    1  abf  pinoutmast_interconnect0.fiq       $end
$var wire    1  abg  pinoutmast_interconnect0.irq       $end
$var wire    1  abh  pinoutmast_interconnect0.benable       $end
$var wire   32  abi  pinoutmast_interconnect0.bw       $end
$var wire   32  abj  pinoutmast_interconnect0.burst       $end
$var wire    1  abk  requestmast_interconnect0       $end
$var wire    1  abl  hsel0       $end
$var wire    1  abm  ready0       $end
$var wire   32  abn  readdata0       $end
$var wire    1  abo  hsel1       $end
$var wire    1  abp  ready1       $end
$var wire   32  abq  readdata1       $end
$var wire    1  abr  hsel2       $end
$var wire    1  abs  ready2       $end
$var wire   32  abt  readdata2       $end
$var wire    1  abu  hsel3       $end
$var wire    1  abv  ready3       $end
$var wire   32  abw  readdata3       $end
$upscope $end
$enddefinitions  $end

$comment
All initial values are dumped below at time 0 sec = 0 timescale units.
$end

$dumpvars
1aaa
b0 aab
0aac
b0 aad
b0 aae
b0 aaf
b1 aag
b0 aah
b0 aai
b0 aaj
1aak
0aal
0aam
b1 aan
b0 aao
0aap
0aaq
b0 aar
b0 aas
0aat
0aau
0aav
0aaw
b0 aax
b0 aay
0aaz
0aba
0abb
b0 abc
b0 abd
0abe
0abf
0abg
0abh
b0 abi
b0 abj
0abk
1abl
1abm
b0 abn
0abo
1abp
b0 abq
0abr
1abs
b0 abt
0abu
1abv
b0 abw
$end

#25
0aaa

#50
1aaa
1aau
1aav
1aaw
b100 aay
1aaz
1abf
1abg
1abh
b100 abj
1abk

#75
0aaa

#100
1aaa
b11 aad
b10 aae
b10 aaf
b0 aag
1aal
b0 aan

#125
0aaa

#150
1aaa
1aam
0abp
0abs
0abv

#175
0aaa

#200
1aaa
b11 aae
b100 aag
0aak
0aal
b100 aan
0abm

#225
0aaa

#250
1aaa
b11101010000000000001111111111110 aaj
1aak
1abm
b11101010000000000001111111111110 abn

#275
0aaa

#300
1aaa
b1000 aag
0aak
b1000 aan
1aap
b11101010000000000001111111111110 aas
1aba
b11101010000000000001111111111110 abd
0abm

#325
0aaa

#350
1aaa
b0 aaj
1aak
0aap
0aba
1abm
b0 abn

#375
0aaa

#400
1aaa
b1100 aag
0aak
b1100 aan
1aap
b0 aas
1aba
b0 abd
0abm

#425
0aaa

#450
1aaa
1aak
0aap
0aba
1abm

#475
0aaa

#500
1aaa
b11111 aab
0aac
b0 aad
b0 aae
b0 aaf
0aak
0aam
1aap
1aba
0abm

#525
0aaa

#550
1aaa
1aak
0aap
0aba
1abm

#575
0aaa

#600
1aaa
b10000 aan
1aap
1aba

#625
0aaa

#650
1aaa
0aap
0aaz
0aba
0abk

#675
0aaa

#700
1aaa

#725
0aaa

#750
1aaa

#775
0aaa

#800
1aaa

#825
0aaa

#850
1aaa

#875
0aaa

#900
1aaa
b1000000000000000 aar
1aaz
b1000000000000000 abc
1abk

#925
0aaa

#950
1aaa
1aal
b1000000000000000 aan

#975
0aaa

#1000
1aaa
b0 aab
0aac
b11 aad
b10 aae
b10 aaf
b1000000000000000 aag
1aam

#1025
0aaa

#1050
1aaa
b11 aae
b1000000000000100 aag
0aak
0aal
b1000000000000100 aan
0abm

#1075
0aaa

#1100
1aaa
b11100011101000000000000011010010 aaj
1aak
1abm
b11100011101000000000000011010010 abn

#1125
0aaa

#1150
1aaa
b1000000000001000 aag
0aak
b1000000000001000 aan
1aap
b11100011101000000000000011010010 aas
1aba
b11100011101000000000000011010010 abd
0abm

#1175
0aaa

#1200
1aaa
b11100001001010011111000000000000 aaj
1aak
0aap
0aba
1abm
b11100001001010011111000000000000 abn

#1225
0aaa

#1250
1aaa
b1000000000001100 aag
0aak
b1000000000001100 aan
1aap
b11100001001010011111000000000000 aas
1aba
b11100001001010011111000000000000 abd
0abm

#1275
0aaa

#1300
1aaa
b11100101100111111101000001011100 aaj
1aak
0aap
0aba
1abm
b11100101100111111101000001011100 abn

#1325
0aaa

#1350
1aaa
b11111 aab
0aac
b0 aad
b0 aae
b0 aaf
0aak
0aam
1aap
b11100101100111111101000001011100 aas
1aba
b11100101100111111101000001011100 abd
0abm

#1375
0aaa

#1400
1aaa
b11100001000011110000000000000000 aaj
1aak
0aap
0aba
1abm
b11100001000011110000000000000000 abn

#1425
0aaa

#1450
1aaa
b1000000000010000 aan
1aap
b11100001000011110000000000000000 aas
1aba
b11100001000011110000000000000000 abd

#1475
0aaa

#1500
1aaa
0aap
0aaz
0aba
0abk

#1525
0aaa

#1550
1aaa

#1575
0aaa

#1600
1aaa

#1625
0aaa

#1650
1aaa

#1675
0aaa

#1700
1aaa

#1725
0aaa

#1750
1aaa

#1775
0aaa

#1800
1aaa
b1000000000010000 aar
1aaz
b1000000000010000 abc
1abk

#1825
0aaa

#1850
1aaa
1aal

#1875
0aaa

#1900
1aaa
b0 aab
0aac
b11 aad
b10 aae
b10 aaf
b1000000000010000 aag
1aam

#1925
0aaa

#1950
1aaa
b11 aae
b1000000000010100 aag
0aak
0aal
b1000000000010100 aan
0abm

#1975
0aaa

#2000
1aaa
b11100011110000000000000000011111 aaj
1aak
1abm
b11100011110000000000000000011111 abn

#2025
0aaa

#2050
1aaa
b1000000000011000 aag
0aak
b1000000000011000 aan
1aap
b11100011110000000000000000011111 aas
1aba
b11100011110000000000000000011111 abd
0abm

#2075
0aaa

#2100
1aaa
b11100011100000000000000000010000 aaj
1aak
0aap
0aba
1abm
b11100011100000000000000000010000 abn

#2125
0aaa

#2150
1aaa
b1000000000011100 aag
0aak
b1000000000011100 aan
1aap
b11100011100000000000000000010000 aas
1aba
b11100011100000000000000000010000 abd
0abm

#2175
0aaa

#2200
1aaa
b11100001001000011111000000000000 aaj
1aak
0aap
0aba
1abm
b11100001001000011111000000000000 abn

#2225
0aaa

#2250
1aaa
b11111 aab
0aac
b0 aad
b0 aae
b0 aaf
0aak
0aam
1aap
b11100001001000011111000000000000 aas
1aba
b11100001001000011111000000000000 abd
0abm

#2275
0aaa

#2300
1aaa
b11100010100011110011000000111100 aaj
1aak
0aap
0aba
1abm
b11100010100011110011000000111100 abn

#2325
0aaa

#2350
1aaa
b1000000000100000 aan
1aap
b11100010100011110011000000111100 aas
1aba
b11100010100011110011000000111100 abd

#2375
0aaa

#2400
1aaa
0aap
0aaz
0aba
0abk

#2425
0aaa

#2450
1aaa

#2475
0aaa

#2500
1aaa

#2525
0aaa

#2550
1aaa
b1000000001100000 aar
1aaz
b1000000001100000 abc
1abk

#2575
0aaa

#2600
1aaa
1aal
b1000000001100000 aan

#2625
0aaa

#2650
1aaa
b0 aab
0aac
b11 aad
b10 aae
b10 aaf
b1000000001100000 aag
1aam

#2675
0aaa

#2700
1aaa
b11 aae
b1000000001100100 aag
0aak
0aal
b1000000001100100 aan
0abm

#2725
0aaa

#2750
1aaa
b1010000001100000 aaj
1aak
1abm
b1010000001100000 abn

#2775
0aaa

#2800
1aaa
b1000000001101000 aag
0aak
b1000000001101000 aan
1aap
b1010000001100000 aas
1aba
b1010000001100000 abd
0abm

#2825
0aaa

#2850
1aaa
b1010000010000100 aaj
1aak
0aap
0aba
1abm
b1010000010000100 abn

#2875
0aaa

#2900
1aaa
b1000000001101100 aag
0aak
b1000000001101100 aan
1aap
b1010000010000100 aas
1aba
b1010000010000100 abd
0abm

#2925
0aaa

#2950
1aaa
b10000000000000000000000 aaj
1aak
0aap
0aba
1abm
b10000000000000000000000 abn

#2975
0aaa

#3000
1aaa
b11111 aab
0aac
b0 aad
b0 aae
b0 aaf
0aak
0aam
1aap
b10000000000000000000000 aas
1aba
b10000000000000000000000 abd
0abm

#3025
0aaa

#3050
1aaa
b100000000000000000000000 aaj
1aak
0aap
0aba
1abm
b100000000000000000000000 abn

#3075
0aaa

#3100
1aaa
b1000000001110000 aan
1aap
b100000000000000000000000 aas
1aba
b100000000000000000000000 abd

#3125
0aaa

#3150
1aaa
0aap
0aaz
0aba
0abk

#3175
0aaa

#3200
1aaa

#3225
0aaa

#3250
1aaa

#3275
0aaa

#3300
1aaa

#3325
0aaa

#3350
1aaa

#3375
0aaa

#3400
1aaa

#3425
0aaa

#3450
1aaa

#3475
0aaa

#3500
1aaa
b1000000000100000 aar
1aaz
b1000000000100000 abc
1abk

#3525
0aaa

#3550
1aaa
1aal
b1000000000100000 aan

#3575
0aaa

#3600
1aaa
b0 aab
0aac
b11 aad
b10 aae
b10 aaf
b1000000000100000 aag
1aam

#3625
0aaa

#3650
1aaa
b11 aae
b1000000000100100 aag
0aak
0aal
b1000000000100100 aan
0abm

#3675
0aaa

#3700
1aaa
b11101000100100110010000000110000 aaj
1aak
1abm
b11101000100100110010000000110000 abn

#3725
0aaa

#3750
1aaa
b1000000000101000 aag
0aak
b1000000000101000 aan
1aap
b11101000100100110010000000110000 aas
1aba
b11101000100100110010000000110000 abd
0abm

#3775
0aaa

#3800
1aaa
b11100001000011110000000000000000 aaj
1aak
0aap
0aba
1abm
b11100001000011110000000000000000 abn

#3825
0aaa

#3850
1aaa
b1000000000101100 aag
0aak
b1000000000101100 aan
1aap
b11100001000011110000000000000000 aas
1aba
b11100001000011110000000000000000 abd
0abm

#3875
0aaa

#3900
1aaa
b11100011110000000000000000011111 aaj
1aak
0aap
0aba
1abm
b11100011110000000000000000011111 abn

#3925
0aaa

#3950
1aaa
b11111 aab
0aac
b0 aad
b0 aae
b0 aaf
0aak
0aam
1aap
b11100011110000000000000000011111 aas
1aba
b11100011110000000000000000011111 abd
0abm

#3975
0aaa

#4000
1aaa
b11100011100000000000000000010000 aaj
1aak
0aap
0aba
1abm
b11100011100000000000000000010000 abn

#4025
0aaa

#4050
1aaa
b1000000000110000 aan
1aap
b11100011100000000000000000010000 aas
1aba
b11100011100000000000000000010000 abd

#4075
0aaa

#4100
1aaa
0aap
0aaz
0aba
0abk

#4125
0aaa

#4150
1aaa

#4175
0aaa

#4200
1aaa

#4225
0aaa

#4250
1aaa

#4275
0aaa

#4300
1aaa

#4325
0aaa

#4350
1aaa

#4375
0aaa

#4400
1aaa

#4425
0aaa

#4450
1aaa

#4475
0aaa

#4500
1aaa

#4525
0aaa

#4550
1aaa

#4575
0aaa

#4600
1aaa
b1000000000110000 aar
1aaz
b1000000000110000 abc
1abk

#4625
0aaa

#4650
1aaa
1aal

#4675
0aaa

#4700
1aaa
b0 aab
0aac
b11 aad
b10 aae
b10 aaf
b1000000000110000 aag
1aam

#4725
0aaa

#4750
1aaa
b11 aae
b1000000000110100 aag
0aak
0aal
b1000000000110100 aan
0abm

#4775
0aaa

#4800
1aaa
b11100011110000000000000011000000 aaj
1aak
1abm
b11100011110000000000000011000000 abn

#4825
0aaa

#4850
1aaa
b1000000000111000 aag
0aak
b1000000000111000 aan
1aap
b11100011110000000000000011000000 aas
1aba
b11100011110000000000000011000000 abd
0abm

#4875
0aaa

#4900
1aaa
b11100001001000011111000000000000 aaj
1aak
0aap
0aba
1abm
b11100001001000011111000000000000 abn

#4925
0aaa

#4950
1aaa
b1000000000111100 aag
0aak
b1000000000111100 aan
1aap
b11100001001000011111000000000000 aas
1aba
b11100001001000011111000000000000 abd
0abm

#4975
0aaa

#5000
1aaa
b11100011101000000011001001001001 aaj
1aak
0aap
0aba
1abm
b11100011101000000011001001001001 abn

#5025
0aaa

#5050
1aaa
b11111 aab
0aac
b0 aad
b0 aae
b0 aaf
0aak
0aam
1aap
b11100011101000000011001001001001 aas
1aba
b11100011101000000011001001001001 abd
0abm

#5075
0aaa

#5100
1aaa
b11100010100000110011100000000101 aaj
1aak
0aap
0aba
1abm
b11100010100000110011100000000101 abn

#5125
0aaa

#5150
1aaa
b1000000001000000 aan
1aap
b11100010100000110011100000000101 aas
1aba
b11100010100000110011100000000101 abd

#5175
0aaa

#5200
1aaa
0aap
0aaz
0aba
0abk

#5225
0aaa

#5250
1aaa

#5275
0aaa

#5300
1aaa

#5325
0aaa

#5350
1aaa

#5375
0aaa

#5400
1aaa

#5425
0aaa

#5450
1aaa

#5475
0aaa

#5500
1aaa
b1000000001000000 aar
1aaz
b1000000001000000 abc
1abk

#5525
0aaa

#5550
1aaa
1aal

#5575
0aaa

#5600
1aaa
b0 aab
0aac
b11 aad
b10 aae
b10 aaf
b1000000001000000 aag
1aam

#5625
0aaa

#5650
1aaa
b11 aae
b1000000001000100 aag
0aak
0aal
b1000000001000100 aan
0abm

#5675
0aaa

#5700
1aaa
b11100011101000000010010100000010 aaj
1aak
1abm
b11100011101000000010010100000010 abn

#5725
0aaa

#5750
1aaa
b1000000001001000 aag
0aak
b1000000001001000 aan
1aap
b11100011101000000010010100000010 aas
1aba
b11100011101000000010010100000010 abd
0abm

#5775
0aaa

#5800
1aaa
b11100101100000110010000000000000 aaj
1aak
0aap
0aba
1abm
b11100101100000110010000000000000 abn

#5825
0aaa

#5850
1aaa
b1000000001001100 aag
0aak
b1000000001001100 aan
1aap
b11100101100000110010000000000000 aas
1aba
b11100101100000110010000000000000 abd
0abm

#5875
0aaa

#5900
1aaa
b11100011101000001011000000000000 aaj
1aak
0aap
0aba
1abm
b11100011101000001011000000000000 abn

#5925
0aaa

#5950
1aaa
b11111 aab
0aac
b0 aad
b0 aae
b0 aaf
0aak
0aam
1aap
b11100011101000001011000000000000 aas
1aba
b11100011101000001011000000000000 abd
0abm

#5975
0aaa

#6000
1aaa
b11100001010101000000000000000101 aaj
1aak
0aap
0aba
1abm
b11100001010101000000000000000101 abn

#6025
0aaa

#6050
1aaa
b1000000001010000 aan
1aap
b11100001010101000000000000000101 aas
1aba
b11100001010101000000000000000101 abd

#6075
0aaa

#6100
1aaa
0aap
0aaz
0aba
0abk

#6125
0aaa

#6150
1aaa

#6175
0aaa

#6200
1aaa

#6225
0aaa

#6250
1aaa

#6275
0aaa

#6300
1aaa

#6325
0aaa

#6350
1aaa

#6375
0aaa

#6400
1aaa

#6425
0aaa

#6450
1aaa
b1000000001010000 aar
1aaz
b1000000001010000 abc
1abk

#6475
0aaa

#6500
1aaa
1aal

#6525
0aaa

#6550
1aaa
b0 aab
0aac
b11 aad
b10 aae
b10 aaf
b1000000001010000 aag
1aam

#6575
0aaa

#6600
1aaa
b11 aae
b1000000001010100 aag
0aak
0aal
b1000000001010100 aan
0abm

#6625
0aaa

#6650
1aaa
b110100100001001011000000000100 aaj
1aak
1abm
b110100100001001011000000000100 abn

#6675
0aaa

#6700
1aaa
b1000000001011000 aag
0aak
b1000000001011000 aan
1aap
b110100100001001011000000000100 aas
1aba
b110100100001001011000000000100 abd
0abm

#6725
0aaa

#6750
1aaa
b111010111111111111111111111100 aaj
1aak
0aap
0aba
1abm
b111010111111111111111111111100 abn

#6775
0aaa

#6800
1aaa
b1000000001011100 aag
0aak
b1000000001011100 aan
1aap
b111010111111111111111111111100 aas
1aba
b111010111111111111111111111100 abd
0abm

#6825
0aaa

#6850
1aaa
b11101011000000000000000110000101 aaj
1aak
0aap
0aba
1abm
b11101011000000000000000110000101 abn

#6875
0aaa

#6900
1aaa
b11111 aab
0aac
b0 aad
b0 aae
b0 aaf
0aak
0aam
1aap
b11101011000000000000000110000101 aas
1aba
b11101011000000000000000110000101 abd
0abm

#6925
0aaa

#6950
1aaa
b11101010111111111111111111111110 aaj
1aak
0aap
0aba
1abm
b11101010111111111111111111111110 abn

#6975
0aaa

#7000
1aaa
b1000000001100000 aan
1aap
b11101010111111111111111111111110 aas
1aba
b11101010111111111111111111111110 abd

#7025
0aaa

#7050
1aaa
0aap
0aaz
0aba
0abk

#7075
0aaa

#7100
1aaa

#7125
0aaa

#7150
1aaa

#7175
0aaa

#7200
1aaa

#7225
0aaa

#7250
1aaa
b1010000001100000 aar
b0 aas
1aat
b1 aay
1aaz
b1010000001100000 abc
b0 abd
1abe
b1 abj
1abk

#7275
0aaa

#7300
1aaa
1aal
b1010000001100000 aan

#7325
0aaa

#7350
1aaa
b0 aab
1aac
b10 aae
b10 aaf
b1010000001100000 aag
1aam

#7375
0aaa

#7400
1aaa
b11111 aab
0aac
b0 aae
b0 aaf
0aak
0aal
0aam
0abm

#7425
0aaa

#7450
1aaa
1aak
1abm

#7475
0aaa

#7500
1aaa
1aap
1aba

#7525
0aaa

#7550
1aaa
0aap
0aaz
0aba
0abk

#7575
0aaa

#7600
1aaa

#7625
0aaa

#7650
1aaa

#7675
0aaa

#7700
1aaa

#7725
0aaa

#7750
1aaa

#7775
0aaa

#7800
1aaa
b1010000001100100 aar
1aaz
b1010000001100100 abc
1abk

#7825
0aaa

#7850
1aaa
1aal
b1010000001100100 aan

#7875
0aaa

#7900
1aaa
b0 aab
1aac
b10 aae
b10 aaf
b1010000001100100 aag
1aam

#7925
0aaa

#7950
1aaa
b11111 aab
0aac
b0 aae
b0 aaf
0aak
0aal
0aam
0abm

#7975
0aaa

#8000
1aaa
1aak
1abm

#8025
0aaa

#8050
1aaa
1aap
1aba

#8075
0aaa

#8100
1aaa
0aap
0aaz
0aba
0abk

#8125
0aaa

#8150
1aaa

#8175
0aaa

#8200
1aaa

#8225
0aaa

#8250
1aaa

#8275
0aaa

#8300
1aaa

#8325
0aaa

#8350
1aaa
b1010000001101000 aar
1aaz
b1010000001101000 abc
1abk

#8375
0aaa

#8400
1aaa
1aal
b1010000001101000 aan

#8425
0aaa

#8450
1aaa
b0 aab
1aac
b10 aae
b10 aaf
b1010000001101000 aag
1aam

#8475
0aaa

#8500
1aaa
b11111 aab
0aac
b0 aae
b0 aaf
0aak
0aal
0aam
0abm

#8525
0aaa

#8550
1aaa
1aak
1abm

#8575
0aaa

#8600
1aaa
1aap
1aba

#8625
0aaa

#8650
1aaa
0aap
0aaz
0aba
0abk

#8675
0aaa

#8700
1aaa

#8725
0aaa

#8750
1aaa

#8775
0aaa

#8800
1aaa

#8825
0aaa

#8850
1aaa

#8875
0aaa

#8900
1aaa
b1010000001101100 aar
1aaz
b1010000001101100 abc
1abk

#8925
0aaa

#8950
1aaa
1aal
b1010000001101100 aan

#8975
0aaa

#9000
1aaa
b0 aab
1aac
b10 aae
b10 aaf
b1010000001101100 aag
1aam

#9025
0aaa

#9050
1aaa
b11111 aab
0aac
b0 aae
b0 aaf
0aak
0aal
0aam
0abm

#9075
0aaa

#9100
1aaa
1aak
1abm

#9125
0aaa

#9150
1aaa
1aap
1aba

#9175
0aaa

#9200
1aaa
0aap
0aaz
0aba
0abk

#9225
0aaa

#9250
1aaa

#9275
0aaa

#9300
1aaa

#9325
0aaa

#9350
1aaa

#9375
0aaa

#9400
1aaa

#9425
0aaa

#9450
1aaa
b1010000001110000 aar
1aaz
b1010000001110000 abc
1abk

#9475
0aaa

#9500
1aaa
1aal
b1010000001110000 aan

#9525
0aaa

#9550
1aaa
b0 aab
1aac
b10 aae
b10 aaf
b1010000001110000 aag
1aam

#9575
0aaa

#9600
1aaa
b11111 aab
0aac
b0 aae
b0 aaf
0aak
0aal
0aam
0abm

#9625
0aaa

#9650
1aaa
1aak
1abm

#9675
0aaa

#9700
1aaa
1aap
1aba

#9725
0aaa

#9750
1aaa
0aap
0aaz
0aba
0abk

#9775
0aaa

#9800
1aaa

#9825
0aaa

#9850
1aaa

#9875
0aaa

#9900
1aaa

#9925
0aaa

#9950
1aaa

#9975
0aaa

#10000
1aaa
b1010000001110100 aar
1aaz
b1010000001110100 abc
1abk

#10025
0aaa

#10050
1aaa
1aal
b1010000001110100 aan

#10075
0aaa

#10100
1aaa
b0 aab
1aac
b10 aae
b10 aaf
b1010000001110100 aag
1aam

#10125
0aaa

#10150
1aaa
b11111 aab
0aac
b0 aae
b0 aaf
0aak
0aal
0aam
0abm

#10175
0aaa

#10200
1aaa
1aak
1abm

#10225
0aaa

#10250
1aaa
1aap
1aba

#10275
0aaa

#10300
1aaa
0aap
0aaz
0aba
0abk

#10325
0aaa

#10350
1aaa

#10375
0aaa

#10400
1aaa

#10425
0aaa

#10450
1aaa

#10475
0aaa

#10500
1aaa

#10525
0aaa

#10550
1aaa
b1010000001111000 aar
1aaz
b1010000001111000 abc
1abk

#10575
0aaa

#10600
1aaa
1aal
b1010000001111000 aan

#10625
0aaa

#10650
1aaa
b0 aab
1aac
b10 aae
b10 aaf
b1010000001111000 aag
1aam

#10675
0aaa

#10700
1aaa
b11111 aab
0aac
b0 aae
b0 aaf
0aak
0aal
0aam
0abm

#10725
0aaa

#10750
1aaa
1aak
1abm

#10775
0aaa

#10800
1aaa
1aap
1aba

#10825
0aaa

#10850
1aaa
0aap
0aaz
0aba
0abk

#10875
0aaa

#10900
1aaa

#10925
0aaa

#10950
1aaa

#10975
0aaa

#11000
1aaa

#11025
0aaa

#11050
1aaa

#11075
0aaa

#11100
1aaa
b1010000001111100 aar
1aaz
b1010000001111100 abc
1abk

#11125
0aaa

#11150
1aaa
1aal
b1010000001111100 aan

#11175
0aaa

#11200
1aaa
b0 aab
1aac
b10 aae
b10 aaf
b1010000001111100 aag
1aam

#11225
0aaa

#11250
1aaa
b11111 aab
0aac
b0 aae
b0 aaf
0aak
0aal
0aam
0abm

#11275
0aaa

#11300
1aaa
1aak
1abm

#11325
0aaa

#11350
1aaa
1aap
1aba

#11375
0aaa

#11400
1aaa
0aap
0aaz
0aba
0abk

#11425
0aaa

#11450
1aaa

#11475
0aaa

#11500
1aaa

#11525
0aaa

#11550
1aaa

#11575
0aaa

#11600
1aaa

#11625
0aaa

#11650
1aaa
b1010000010000000 aar
1aaz
b1010000010000000 abc
1abk

#11675
0aaa

#11700
1aaa
1aal
b1010000010000000 aan

#11725
0aaa

#11750
1aaa
b0 aab
1aac
b10 aae
b10 aaf
b1010000010000000 aag
1aam

#11775
0aaa

#11800
1aaa
b11111 aab
0aac
b0 aae
b0 aaf
0aak
0aal
0aam
0abm

#11825
0aaa

#11850
1aaa
1aak
1abm

#11875
0aaa

#11900
1aaa
1aap
1aba

#11925
0aaa

#11950
1aaa
0aap
0aaz
0aba
0abk

#11975
0aaa

#12000
1aaa

#12025
0aaa

#12050
1aaa

#12075
0aaa

#12100
1aaa

#12125
0aaa

#12150
1aaa

#12175
0aaa

#12200
1aaa

#12225
0aaa

#12250
1aaa

#12275
0aaa

#12300
1aaa
b1000000001100000 aar
0aat
b100 aay
1aaz
b1000000001100000 abc
0abe
b100 abj
1abk

#12325
0aaa

#12350
1aaa
1aal
b1000000001100000 aan

#12375
0aaa

#12400
1aaa
b0 aab
0aac
b11 aad
b10 aae
b10 aaf
b1000000001100000 aag
1aam

#12425
0aaa

#12450
1aaa
b11 aae
b1000000001100100 aag
0aak
0aal
b1000000001100100 aan
0abm

#12475
0aaa

#12500
1aaa
b1010000001100000 aaj
1aak
1abm
b1010000001100000 abn

#12525
0aaa

#12550
1aaa
b1000000001101000 aag
0aak
b1000000001101000 aan
1aap
b1010000001100000 aas
1aba
b1010000001100000 abd
0abm

#12575
0aaa

#12600
1aaa
b1010000010000100 aaj
1aak
0aap
0aba
1abm
b1010000010000100 abn

#12625
0aaa

#12650
1aaa
b1000000001101100 aag
0aak
b1000000001101100 aan
1aap
b1010000010000100 aas
1aba
b1010000010000100 abd
0abm

#12675
0aaa

#12700
1aaa
b10000000000000000000000 aaj
1aak
0aap
0aba
1abm
b10000000000000000000000 abn

#12725
0aaa

#12750
1aaa
b11111 aab
0aac
b0 aad
b0 aae
b0 aaf
0aak
0aam
1aap
b10000000000000000000000 aas
1aba
b10000000000000000000000 abd
0abm

#12775
0aaa

#12800
1aaa
b100000000000000000000000 aaj
1aak
0aap
0aba
1abm
b100000000000000000000000 abn

#12825
0aaa

#12850
1aaa
b1000000001110000 aan
1aap
b100000000000000000000000 aas
1aba
b100000000000000000000000 abd

#12875
0aaa

#12900
1aaa
0aap
0aaz
0aba
0abk

#12925
0aaa

#12950
1aaa

#12975
0aaa

#13000
1aaa

#13025
0aaa

#13050
1aaa
b1000011001110000 aar
1aaz
b1000011001110000 abc
1abk

#13075
0aaa

#13100
1aaa
1aal
b1000011001110000 aan

#13125
0aaa

#13150
1aaa
b0 aab
0aac
b11 aad
b10 aae
b10 aaf
b1000011001110000 aag
1aam

#13175
0aaa

#13200
1aaa
b11 aae
b1000011001110100 aag
0aak
0aal
b1000011001110100 aan
0abm

#13225
0aaa

#13250
1aaa
b1010000000000100 aaj
1aak
1abm
b1010000000000100 abn

#13275
0aaa

#13300
1aaa
b1000011001111000 aag
0aak
b1000011001111000 aan
1aap
b1010000000000100 aas
1aba
b1010000000000100 abd
0abm

#13325
0aaa

#13350
1aaa
b11100001101000001100000000001101 aaj
1aak
0aap
0aba
1abm
b11100001101000001100000000001101 abn

#13375
0aaa

#13400
1aaa
b1000011001111100 aag
0aak
b1000011001111100 aan
1aap
b11100001101000001100000000001101 aas
1aba
b11100001101000001100000000001101 abd
0abm

#13425
0aaa

#13450
1aaa
b11101001001011011101100000010000 aaj
1aak
0aap
0aba
1abm
b11101001001011011101100000010000 abn

#13475
0aaa

#13500
1aaa
b11111 aab
0aac
b0 aad
b0 aae
b0 aaf
0aak
0aam
1aap
b11101001001011011101100000010000 aas
1aba
b11101001001011011101100000010000 abd
0abm

#13525
0aaa

#13550
1aaa
b11100011101000000011000000000001 aaj
1aak
0aap
0aba
1abm
b11100011101000000011000000000001 abn

#13575
0aaa

#13600
1aaa
b1000011010000000 aan
1aap
b11100011101000000011000000000001 aas
1aba
b11100011101000000011000000000001 abd

#13625
0aaa

#13650
1aaa
0aap
0aaz
0aba
0abk

#13675
0aaa

#13700
1aaa

#13725
0aaa

#13750
1aaa

#13775
0aaa

#13800
1aaa

#13825
0aaa

#13850
1aaa

#13875
0aaa

#13900
1aaa
b1000011010000000 aar
1aaz
b1000011010000000 abc
1abk

#13925
0aaa

#13950
1aaa
1aal

#13975
0aaa

#14000
1aaa
b0 aab
0aac
b11 aad
b10 aae
b10 aaf
b1000011010000000 aag
1aam

#14025
0aaa

#14050
1aaa
b11 aae
b1000011010000100 aag
0aak
0aal
b1000011010000100 aan
0abm

#14075
0aaa

#14100
1aaa
b11100011101000000100010001111111 aaj
1aak
1abm
b11100011101000000100010001111111 abn

#14125
0aaa

#14150
1aaa
b1000011010001000 aag
0aak
b1000011010001000 aan
1aap
b11100011101000000100010001111111 aas
1aba
b11100011101000000100010001111111 abd
0abm

#14175
0aaa

#14200
1aaa
b11100101110001000011000000000000 aaj
1aak
0aap
0aba
1abm
b11100101110001000011000000000000 abn

#14225
0aaa

#14250
1aaa
b1000011010001100 aag
0aak
b1000011010001100 aan
1aap
b11100101110001000011000000000000 aas
1aba
b11100101110001000011000000000000 abd
0abm

#14275
0aaa

#14300
1aaa
b11100010010011001011000000000100 aaj
1aak
0aap
0aba
1abm
b11100010010011001011000000000100 abn

#14325
0aaa

#14350
1aaa
b11111 aab
0aac
b0 aad
b0 aae
b0 aaf
0aak
0aam
1aap
b11100010010011001011000000000100 aas
1aba
b11100010010011001011000000000100 abd
0abm

#14375
0aaa

#14400
1aaa
b11100101100111110000000000111100 aaj
1aak
0aap
0aba
1abm
b11100101100111110000000000111100 abn

#14425
0aaa

#14450
1aaa
b1000011010010000 aan
1aap
b11100101100111110000000000111100 aas
1aba
b11100101100111110000000000111100 abd

#14475
0aaa

#14500
1aaa
0aap
0aaz
0aba
0abk

#14525
0aaa

#14550
1aaa

#14575
0aaa

#14600
1aaa
b1111111111111111101100 aar
b1010000010000100 aas
1aat
b1 aay
1aaz
b1111111111111111101100 abc
b1010000010000100 abd
1abe
b1 abj
1abk

#14625
0aaa

#14650
1aaa
1aal
b1111111111111111101100 aan
b1010000010000100 aao

#14675
0aaa

#14700
1aaa
b0 aab
1aac
b10 aae
b10 aaf
b1111111111111111101100 aag
b1010000010000100 aah
1aam

#14725
0aaa

#14750
1aaa
b11111 aab
0aac
b0 aae
b0 aaf
b1010000010000100 aai
0aak
0aal
0aam
0abm

#14775
0aaa

#14800
1aaa
1aak
1abm

#14825
0aaa

#14850
1aaa
1aap
1aba

#14875
0aaa

#14900
1aaa
0aap
b1111111111111111110000 aar
b0 aas
0aba
b1111111111111111110000 abc
b0 abd

#14925
0aaa

#14950
1aaa
1aal
b1111111111111111110000 aan
b0 aao

#14975
0aaa

#15000
1aaa
b0 aab
1aac
b10 aae
b10 aaf
b1111111111111111110000 aag
b0 aah
1aam

#15025
0aaa

